<?xml version="1.0" encoding="UTF-8"?>
<!-- Generated by org.testng.reporters.JUnitReportReporter -->
<testsuite hostname="DESKTOP-L4023GU" failures="0" tests="1" name="TestCase.TestScript_003" time="0.716" errors="0" timestamp="2024-04-03T18:39:34 IST" skipped="0">
  <testcase classname="TestCase.TestScript_003" name="responseForHttpGetRequest_ListOfUsers" time="0.716"/>
  <system-out>
    <![CDATA[The Status code of the HttpResponse received against Http-Get request for List of Users is the same as expected : 200
The Response Body received against Http-Get request for List of Users is : {"page":1,"per_page":6,"total":12,"total_pages":2,"data":[{"id":1,"email":"george.bluth@reqres.in","first_name":"George","last_name":"Bluth","avatar":"https://reqres.in/img/faces/1-image.jpg"},{"id":2,"email":"janet.weaver@reqres.in","first_name":"Janet","last_name":"Weaver","avatar":"https://reqres.in/img/faces/2-image.jpg"},{"id":3,"email":"emma.wong@reqres.in","first_name":"Emma","last_name":"Wong","avatar":"https://reqres.in/img/faces/3-image.jpg"},{"id":4,"email":"eve.holt@reqres.in","first_name":"Eve","last_name":"Holt","avatar":"https://reqres.in/img/faces/4-image.jpg"},{"id":5,"email":"charles.morris@reqres.in","first_name":"Charles","last_name":"Morris","avatar":"https://reqres.in/img/faces/5-image.jpg"},{"id":6,"email":"tracey.ramos@reqres.in","first_name":"Tracey","last_name":"Ramos","avatar":"https://reqres.in/img/faces/6-image.jpg"}],"support":{"url":"https://reqres.in/#support-heading","text":"To keep ReqRes free, contributions towards server costs are appreciated!"}}
Actual LastNameofTheUser_Tracey in the jsonPayload of ResponseBody received against Http-get request_ListOfUsers is the same as expected as the Actual_LastName of the user Tracey is :Ramos whereas the Expected_LastName of the user Tracey is : Ramos
User_id of the user whose name is Tracey in the dataBase is : 6]]>
  </system-out>
</testsuite> <!-- TestCase.TestScript_003 -->
